{
  "schema_url": "https://gitlab.com/cyverse/cacao-common/-/raw/master/template/metadata-schemas/v2/schema.json",
  "name": "attach_volume",
  "author": "Jeremy Frady",
  "author_email": "jeremyfrady@cyverse.org",
  "description": "",
  "template_type": "openstack_terraform",
  "purpose": "openstack_storage",
  "cacao_pre_tasks": [],
  "cacao_post_tasks": null,
  "parameters": [
    {
      "name": "region",
      "type": "cacao_provider_region",
      "default": "IU",
      "ui_label": "Openstack region",
      "description": "Openstack region"
    },
    {
      "name": "attach",
      "type": "bool",
      "default": false,
      "description": "whether or not to attach the volume to the specified instance"
    },
    {
      "name": "instance_id",
      "type": "string",
      "ui_label": "Instance ID",
      "description": "Instance ID"
    },
    {
      "name": "volume_id",
      "type": "string",
      "ui_label": "Volume ID",
      "description": "Volume ID"
    }
  ]
}
