{
  "schema_url": "https://gitlab.com/cyverse/cacao-common/-/raw/master/template/metadata-schemas/v2/schema.json",
  "name": "attach_share_interface",
  "author": "Jeremy Frady",
  "author_email": "jeremyfrady@cyverse.org",
  "description": "",
  "template_type": "openstack_terraform",
  "purpose": "openstack_compute",
  "cacao_pre_tasks": [],
  "cacao_post_tasks": [],
  "parameters": [
    {
      "name": "region",
      "type": "cacao_provider_region",
      "default": "IU",
      "ui_label": "Openstack region",
      "description": "Openstack region"
    },
    {
      "name": "instance_uuid",
      "type": "string",
      "ui_label": "Instance UUID",
      "description": "Instance UUID"
    },
    {
      "name": "share_network_uuid",
      "type": "string",
      "ui_label": "Share network UUID",
      "description": "Share network UUID"
    }
  ]
}
